<svg width="60" height="60" viewBox="0 0 60 60" fill="none" xmlns="http://www.w3.org/2000/svg">
<path d="M55 36V10.45C55 7.44005 52.56 5 49.55 5H10.45C7.44005 5 5 7.44005 5 10.45V49.55C5 52.56 7.44005 55 10.45 55H32" stroke="#D3D3D3" stroke-width="4" stroke-linecap="round" stroke-linejoin="round"/>
<path d="M17.5 5V55" stroke="#D3D3D3" stroke-width="4" stroke-linecap="round" stroke-linejoin="round"/>
<path d="M42.5 5V30" stroke="#D3D3D3" stroke-width="4" stroke-linecap="round" stroke-linejoin="round"/>
<path d="M5 30H55" stroke="#D3D3D3" stroke-width="4" stroke-linecap="round" stroke-linejoin="round"/>
<path d="M5 17.5H17.5" stroke="#D3D3D3" stroke-width="4" stroke-linecap="round" stroke-linejoin="round"/>
<path d="M5 42.5H17.5" stroke="#D3D3D3" stroke-width="4" stroke-linecap="round" stroke-linejoin="round"/>
<path d="M42.5 17.5H55" stroke="#D3D3D3" stroke-width="4" stroke-linecap="round" stroke-linejoin="round"/>
<path d="M43 39V53" stroke="#D3D3D3" stroke-width="4" stroke-linecap="round" stroke-linejoin="round"/>
<path d="M50 46H36" stroke="#D3D3D3" stroke-width="4" stroke-linecap="round" stroke-linejoin="round"/>
</svg>
