<svg width="32" height="32" viewBox="0 0 32 32" fill="none" xmlns="http://www.w3.org/2000/svg">
<path d="M26.4267 2.66663H5.57335C3.96805 2.66663 2.66669 3.96798 2.66669 5.57329V26.4266C2.66669 28.0319 3.96805 29.3333 5.57335 29.3333H26.4267C28.032 29.3333 29.3334 28.0319 29.3334 26.4266V5.57329C29.3334 3.96798 28.032 2.66663 26.4267 2.66663Z" stroke="#D3D3D3" stroke-width="2" stroke-linecap="round" stroke-linejoin="round"/>
<path d="M9.33331 2.66663V29.3333" stroke="#D3D3D3" stroke-width="2" stroke-linecap="round" stroke-linejoin="round"/>
<path d="M22.6667 2.66663V29.3333" stroke="#D3D3D3" stroke-width="2" stroke-linecap="round" stroke-linejoin="round"/>
<path d="M2.66669 16H29.3334" stroke="#D3D3D3" stroke-width="2" stroke-linecap="round" stroke-linejoin="round"/>
<path d="M2.66669 9.33337H9.33335" stroke="#D3D3D3" stroke-width="2" stroke-linecap="round" stroke-linejoin="round"/>
<path d="M2.66669 22.6666H9.33335" stroke="#D3D3D3" stroke-width="2" stroke-linecap="round" stroke-linejoin="round"/>
<path d="M22.6667 22.6666H29.3334" stroke="#D3D3D3" stroke-width="2" stroke-linecap="round" stroke-linejoin="round"/>
<path d="M22.6667 9.33337H29.3334" stroke="#D3D3D3" stroke-width="2" stroke-linecap="round" stroke-linejoin="round"/>
</svg>
