<svg width="32" height="32" viewBox="0 0 32 32" fill="none" xmlns="http://www.w3.org/2000/svg">
<path d="M18.6667 24H26.6667" stroke="#D3D3D3" stroke-width="2" stroke-linecap="round" stroke-linejoin="round"/>
<path d="M18.6667 16H26.6667" stroke="#D3D3D3" stroke-width="2" stroke-linecap="round" stroke-linejoin="round"/>
<path d="M18.6667 8H26.6667" stroke="#D3D3D3" stroke-width="2" stroke-linecap="round" stroke-linejoin="round"/>
<path d="M13.0319 10.2317C13.4338 9.83555 13.4338 9.19322 13.0319 8.79704L10.1218 5.92764C9.31812 5.13528 8.01519 5.13528 7.21156 5.92764L4.30136 8.79713C3.89955 9.19331 3.89955 9.83565 4.30136 10.2318C4.70317 10.628 5.35464 10.628 5.75646 10.2318L7.63773 8.37693V13.6233C7.63773 14.1836 8.09839 14.6378 8.66663 14.6378C9.23489 14.6378 9.69554 14.1836 9.69554 13.6233V8.3768L11.5768 10.2317C11.9787 10.6279 12.6301 10.6279 13.0319 10.2317Z" fill="#D3D3D3"/>
<path d="M4.30139 23.1016C3.89958 23.4978 3.89958 24.1401 4.30139 24.5363L7.21158 27.4057C8.01521 28.1981 9.31815 28.1982 10.1218 27.4058L13.032 24.5365C13.4338 24.1403 13.4338 23.4979 13.032 23.1018C12.6302 22.7056 11.9787 22.7056 11.5769 23.1018L9.69554 24.9567L9.69554 19.7102C9.69554 19.15 9.23488 18.6958 8.66663 18.6958C8.09838 18.6958 7.63773 19.15 7.63773 19.7102L7.63773 24.9565L5.75649 23.1016C5.35467 22.7054 4.7032 22.7054 4.30139 23.1016Z" fill="#D3D3D3"/>
</svg>
